C:\Users\danie\Documents\Develop\ADSI\Labs docker\Lab2\bikestore-backend\src\main\java\com\ADSI1836648\Bike\config\AppConfig.java
C:\Users\danie\Documents\Develop\ADSI\Labs docker\Lab2\bikestore-backend\src\main\java\com\ADSI1836648\Bike\domain\Sale.java
C:\Users\danie\Documents\Develop\ADSI\Labs docker\Lab2\bikestore-backend\src\main\java\com\ADSI1836648\Bike\service\IUserServiceImp.java
C:\Users\danie\Documents\Develop\ADSI\Labs docker\Lab2\bikestore-backend\src\main\java\com\ADSI1836648\Bike\repository\BikeRepository.java
C:\Users\danie\Documents\Develop\ADSI\Labs docker\Lab2\bikestore-backend\src\main\java\com\ADSI1836648\Bike\web\rest\SaleResource.java
C:\Users\danie\Documents\Develop\ADSI\Labs docker\Lab2\bikestore-backend\src\main\java\com\ADSI1836648\Bike\domain\Bike.java
C:\Users\danie\Documents\Develop\ADSI\Labs docker\Lab2\bikestore-backend\src\main\java\com\ADSI1836648\Bike\service\IBikeService.java
C:\Users\danie\Documents\Develop\ADSI\Labs docker\Lab2\bikestore-backend\src\main\java\com\ADSI1836648\Bike\service\IClientService.java
C:\Users\danie\Documents\Develop\ADSI\Labs docker\Lab2\bikestore-backend\src\main\java\com\ADSI1836648\Bike\repository\SaleRepository.java
C:\Users\danie\Documents\Develop\ADSI\Labs docker\Lab2\bikestore-backend\src\main\java\com\ADSI1836648\Bike\domain\Rols.java
C:\Users\danie\Documents\Develop\ADSI\Labs docker\Lab2\bikestore-backend\src\main\java\com\ADSI1836648\Bike\config\SwaggerConfig.java
C:\Users\danie\Documents\Develop\ADSI\Labs docker\Lab2\bikestore-backend\src\main\java\com\ADSI1836648\Bike\domain\Client.java
C:\Users\danie\Documents\Develop\ADSI\Labs docker\Lab2\bikestore-backend\src\main\java\com\ADSI1836648\Bike\domain\Users.java
C:\Users\danie\Documents\Develop\ADSI\Labs docker\Lab2\bikestore-backend\src\main\java\com\ADSI1836648\Bike\service\IUserService.java
C:\Users\danie\Documents\Develop\ADSI\Labs docker\Lab2\bikestore-backend\src\main\java\com\ADSI1836648\Bike\repository\DetailUSerRepository.java
C:\Users\danie\Documents\Develop\ADSI\Labs docker\Lab2\bikestore-backend\src\main\java\com\ADSI1836648\Bike\BikeApplication.java
C:\Users\danie\Documents\Develop\ADSI\Labs docker\Lab2\bikestore-backend\src\main\java\com\ADSI1836648\Bike\service\dto\SaleDTO.java
C:\Users\danie\Documents\Develop\ADSI\Labs docker\Lab2\bikestore-backend\src\main\java\com\ADSI1836648\Bike\service\ISaleService.java
C:\Users\danie\Documents\Develop\ADSI\Labs docker\Lab2\bikestore-backend\src\main\java\com\ADSI1836648\Bike\web\rest\UserResource.java
C:\Users\danie\Documents\Develop\ADSI\Labs docker\Lab2\bikestore-backend\src\main\java\com\ADSI1836648\Bike\service\transformer\BikeTransformer.java
C:\Users\danie\Documents\Develop\ADSI\Labs docker\Lab2\bikestore-backend\src\main\java\com\ADSI1836648\Bike\service\ISaleServiceImp.java
C:\Users\danie\Documents\Develop\ADSI\Labs docker\Lab2\bikestore-backend\src\main\java\com\ADSI1836648\Bike\service\EmailService.java
C:\Users\danie\Documents\Develop\ADSI\Labs docker\Lab2\bikestore-backend\src\main\java\com\ADSI1836648\Bike\service\dto\BikeDTO.java
C:\Users\danie\Documents\Develop\ADSI\Labs docker\Lab2\bikestore-backend\src\main\java\com\ADSI1836648\Bike\domain\enumeration\Gender.java
C:\Users\danie\Documents\Develop\ADSI\Labs docker\Lab2\bikestore-backend\src\main\java\com\ADSI1836648\Bike\repository\UserRepository.java
C:\Users\danie\Documents\Develop\ADSI\Labs docker\Lab2\bikestore-backend\src\main\java\com\ADSI1836648\Bike\service\IClientServiceImp.java
C:\Users\danie\Documents\Develop\ADSI\Labs docker\Lab2\bikestore-backend\src\main\java\com\ADSI1836648\Bike\service\dto\ClientWithSaleDTO.java
C:\Users\danie\Documents\Develop\ADSI\Labs docker\Lab2\bikestore-backend\src\main\java\com\ADSI1836648\Bike\domain\DetailUser.java
C:\Users\danie\Documents\Develop\ADSI\Labs docker\Lab2\bikestore-backend\src\main\java\com\ADSI1836648\Bike\service\IBikeServiceImp.java
C:\Users\danie\Documents\Develop\ADSI\Labs docker\Lab2\bikestore-backend\src\main\java\com\ADSI1836648\Bike\repository\ClientRepository.java
C:\Users\danie\Documents\Develop\ADSI\Labs docker\Lab2\bikestore-backend\src\main\java\com\ADSI1836648\Bike\repository\RolRepository.java
C:\Users\danie\Documents\Develop\ADSI\Labs docker\Lab2\bikestore-backend\src\main\java\com\ADSI1836648\Bike\service\transformer\SaleTransformer.java
C:\Users\danie\Documents\Develop\ADSI\Labs docker\Lab2\bikestore-backend\src\main\java\com\ADSI1836648\Bike\web\rest\BikeResource.java
C:\Users\danie\Documents\Develop\ADSI\Labs docker\Lab2\bikestore-backend\src\main\java\com\ADSI1836648\Bike\domain\enumeration\TypeShockAbsorber.java
C:\Users\danie\Documents\Develop\ADSI\Labs docker\Lab2\bikestore-backend\src\main\java\com\ADSI1836648\Bike\web\rest\ClientResource.java
